"boot/ramdisk/charger",40960,1000,1000,777
"boot/ramdisk/default.prop",32768,1000,1000,644
"boot/ramdisk/fstab.redhookbay",32768,1000,1000,644
"boot/ramdisk/init",32768,1000,1000,775
"boot/ramdisk/init.a500cg.usb.rc",32768,1000,1000,644
"boot/ramdisk/init.avc.rc",32768,1000,1000,644
"boot/ramdisk/init.bt.rc",32768,1000,1000,644
"boot/ramdisk/init.bt.vendor.rc",32768,1000,1000,644
"boot/ramdisk/init.cm.rc",32768,1000,1000,644
"boot/ramdisk/init.common.rc",32768,1000,1000,644
"boot/ramdisk/init.compass.rc",32768,1000,1000,644
"boot/ramdisk/init.config_init.rc",32768,1000,1000,644
"boot/ramdisk/init.debug.rc",32768,1000,1000,644
"boot/ramdisk/init.diag.rc",32768,1000,1000,644
"boot/ramdisk/init.environ.rc",32768,1000,1000,644
"boot/ramdisk/init.firmware.rc",32768,1000,1000,644
"boot/ramdisk/init.gps.rc",32768,1000,1000,644
"boot/ramdisk/init.modem.rc",32768,1000,1000,644
"boot/ramdisk/init.rc",32768,1000,1000,644
"boot/ramdisk/init.recovery.redhookbay.rc",32768,1000,1000,644
"boot/ramdisk/init.redhookbay.rc",32768,1000,1000,644
"boot/ramdisk/init.superuser.rc",32768,1000,1000,644
"boot/ramdisk/init.trace.rc",32768,1000,1000,644
"boot/ramdisk/init.usb.configfs.rc",32768,1000,1000,644
"boot/ramdisk/init.usb.rc",32768,1000,1000,644
"boot/ramdisk/init.watchdog.rc",32768,1000,1000,644
"boot/ramdisk/init.wifi.rc",32768,1000,1000,644
"boot/ramdisk/init.wifi.vendor.rc",32768,1000,1000,644
"boot/ramdisk/init.wireless.rc",32768,1000,1000,644
"boot/ramdisk/init.zram.rc",32768,1000,1000,644
"boot/ramdisk/init.zygote32.rc",32768,1000,1000,644
"boot/ramdisk/intel_prop.cfg",32768,1000,1000,644
"boot/ramdisk/ueventd.rc",32768,1000,1000,644
"boot/ramdisk/ueventd.redhookbay.rc",32768,1000,1000,644
"boot/ramdisk/lib",16384,1000,1000,775
"boot/ramdisk/lib/modules",16384,1000,1000,755
"boot/ramdisk/lib/modules/atomisp-css2300.ko",32768,1000,1000,644
"boot/ramdisk/lib/modules/atomisp-css2400b0_v21.ko",32768,1000,1000,644
"boot/ramdisk/lib/modules/atomisp-css2401a0_legacy_v21.ko",32768,1000,1000,644
"boot/ramdisk/lib/modules/atomisp-css2401a0_v21.ko",32768,1000,1000,644
"boot/ramdisk/lib/modules/bcm43362.ko",32768,1000,1000,644
"boot/ramdisk/lib/modules/bcm_bt_lpm.ko",32768,1000,1000,644
"boot/ramdisk/lib/modules/gc2155.ko",32768,1000,1000,644
"boot/ramdisk/lib/modules/hm2056.ko",32768,1000,1000,644
"boot/ramdisk/lib/modules/hm2056_raw.ko",32768,1000,1000,644
"boot/ramdisk/lib/modules/imx111.ko",32768,1000,1000,644
"boot/ramdisk/lib/modules/imx219.ko",32768,1000,1000,644
"boot/ramdisk/lib/modules/lm3554.ko",32768,1000,1000,644
"boot/ramdisk/lib/modules/mac80211.ko",32768,1000,1000,644
"boot/ramdisk/lib/modules/mn34130.ko",32768,1000,1000,644
"boot/ramdisk/lib/modules/modules.alias",32768,1000,1000,644
"boot/ramdisk/lib/modules/modules.alias.bin",32768,1000,1000,644
"boot/ramdisk/lib/modules/modules.builtin.bin",32768,1000,1000,644
"boot/ramdisk/lib/modules/modules.dep",32768,1000,1000,644
"boot/ramdisk/lib/modules/modules.dep.bin",32768,1000,1000,644
"boot/ramdisk/lib/modules/modules.devname",32768,1000,1000,644
"boot/ramdisk/lib/modules/modules.softdep",32768,1000,1000,644
"boot/ramdisk/lib/modules/modules.symbols",32768,1000,1000,644
"boot/ramdisk/lib/modules/modules.symbols.bin",32768,1000,1000,644
"boot/ramdisk/lib/modules/mt9m114.ko",32768,1000,1000,644
"boot/ramdisk/lib/modules/ov8830.ko",32768,1000,1000,644
"boot/ramdisk/lib/modules/pnwdisp.ko",32768,1000,1000,644
"boot/ramdisk/lib/modules/pvrsgx.ko",32768,1000,1000,644
"boot/ramdisk/lib/modules/rmi4.ko",32768,1000,1000,644
"boot/ramdisk/lib/modules/rt8515.ko",32768,1000,1000,644
"boot/ramdisk/lib/modules/st_drv.ko",32768,1000,1000,644
"boot/ramdisk/lib/modules/t4k35.ko",32768,1000,1000,644
"boot/ramdisk/lib/modules/t4k35_180.ko",32768,1000,1000,644
"boot/ramdisk/lib/modules/t4k37.ko",32768,1000,1000,644
"boot/ramdisk/lib/modules/test_nx.ko",32768,1000,1000,644
"boot/ramdisk/lib/modules/videobuf-core.ko",32768,1000,1000,644
"boot/ramdisk/lib/modules/videobuf-vmalloc.ko",32768,1000,1000,644
"boot/ramdisk/res",16384,1000,1000,755
"boot/ramdisk/res/images",16384,1000,1000,755
"boot/ramdisk/res/images/charger",16384,1000,1000,755
"boot/ramdisk/res/images/charger/battery_fail.png",32768,1000,1000,644
"boot/ramdisk/res/images/charger/battery_scale.png",32768,1000,1000,644
"boot/ramdisk/sbin",16384,1000,1000,750
"boot/ramdisk/sbin/adbd",32768,1000,1000,775
"boot/ramdisk/sbin/config_init.sh",32768,1000,1000,775
"boot/ramdisk/sbin/dnfix.sh",32768,1000,1000,775
"boot/ramdisk/sbin/healthd",32768,1000,1000,775
"boot/ramdisk/sbin/intel_prop",32768,1000,1000,774
"boot/ramdisk/sbin/modemrestart.sh",32768,1000,1000,775
"boot/ramdisk/sbin/pclinkd",32768,1000,1000,775
"boot/ramdisk/sbin/rfkill_bt.sh",32768,1000,1000,775
"boot/ramdisk/sbin/slockfix.sh",32768,1000,1000,775
"boot/ramdisk/sbin/thermald",32768,1000,1000,774
"boot/ramdisk/sbin/ueventd",40960,1000,1000,777
"boot/ramdisk/sbin/watchdogd",40960,1000,1000,777